Template: Integrated exercise using the tidyverse
…
exprs_assay <- read_excel(path = "/project/shared/r/1_r_data_science/7-tidyverse-workflow/EH2011.xlsx", sheet = "exprs")

#NOTE-click on the enliseted table to see the table in a new tab
#NOTE=path can have only quoted file name if it is in the directory with you
#NOTE-excel_sheets helps you know what are the sheets in it, you an also open it after copying it #and opening it.
# wrong exprs_assay <- read_excel(excel_sheets("/project/shared/r/1_r_data_science/7-tidyverse-wor#kflow/EH2011.xlsx"))
# wrong exprs_assay<- readxl_example("/project/shared/r/1_r_data_science/7-tidyverse-workflow/EH20#11.xlsx")

Reshape the gene expression matrix in a tidy format. Assign it to a new object exprs_assay_long.

exprs_assay_long <- exprs_assay %>% pivot_longer(where(is.numeric), names_to = "name", values_to = "values")
      
exprs_assay_long

# A tibble: 1,314 × 3
   gene  name         values
   <chr> <chr>         <dbl>
 1 PNLIP TCGA_2J_AAB1   8.10
 2 PNLIP TCGA_2J_AAB4   8.07
 3 PNLIP TCGA_2J_AAB6   6.89
 4 PNLIP TCGA_2J_AAB8   0   
 5 PNLIP TCGA_2J_AAB9  18.2 
 6 PNLIP TCGA_2J_AABA   1.17
 7 PNLIP TCGA_2J_AABE  10.1 
 8 PNLIP TCGA_2J_AABF   9.33
 9 PNLIP TCGA_2J_AABH  15.5 
10 PNLIP TCGA_2J_AABI   0   
# ℹ 1,304 more rows
…
Exercise

Part 2

Import the sample metadata from the Excel file into the R session as a tibble. Assign it to an object named sample_info.

excel_sheets( "/project/shared/r/1_r_data_science/7-tidyverse-workflow/EH2011.xlsx"  )

[1] "exprs"       "sample_info" "gene_info"  

sample_info <-read_excel(path = "/project/shared/r/1_r_data_science/7-tidyverse-workflow/EH2011.xlsx", sheet = "sample_info") 
sample_info

# A tibble: 146 × 11
   unique_patient_ID   age sex   grade T     N     M     days_to_death
   <chr>             <dbl> <chr> <chr> <chr> <chr> <chr>         <dbl>
 1 TCGA_2J_AAB1         65 M     G2    T3    N1    M0               66
 2 TCGA_2J_AAB4         48 M     G2    T2    N1    M0              729
 3 TCGA_2J_AAB6         75 M     G3    T3    N0    M0              293
 4 TCGA_2J_AAB8         71 M     G2    T3    N1    M0               80
 5 TCGA_2J_AAB9         70 F     G2    T3    N1    M0              627
 6 TCGA_2J_AABA         55 M     G2    T3    N1    M0              607
 7 TCGA_2J_AABE         73 M     G2    T3    N0    M0              676
 8 TCGA_2J_AABF         73 M     G3    T3    N1    M0              691
 9 TCGA_2J_AABH         61 M     G2    T3    N0    M0             1287
10 TCGA_2J_AABI         55 F     G3    T3    N0    M0              969
# ℹ 136 more rows
# ℹ 3 more variables: vital_status <chr>, sample_type <chr>, sample_name <chr>
…
# wrong sample_info <- sample_info %>% 
#   wrong- factor ( c("grade", "T","N","M"))
#you can also write mutate for each factor or consolidate as below

sample_info <- sample_info %>% 
  mutate(
    grade = factor(grade),
    T = factor(T),
    N = factor(N),
    M = factor(M)
  )
sample_info

# A tibble: 146 × 11
   unique_patient_ID   age sex   grade T     N     M     days_to_death
   <chr>             <dbl> <chr> <fct> <fct> <fct> <fct>         <dbl>
 1 TCGA_2J_AAB1         65 M     G2    T3    N1    M0               66
 2 TCGA_2J_AAB4         48 M     G2    T2    N1    M0              729
 3 TCGA_2J_AAB6         75 M     G3    T3    N0    M0              293
 4 TCGA_2J_AAB8         71 M     G2    T3    N1    M0               80
 5 TCGA_2J_AAB9         70 F     G2    T3    N1    M0              627
 6 TCGA_2J_AABA         55 M     G2    T3    N1    M0              607
 7 TCGA_2J_AABE         73 M     G2    T3    N0    M0              676
 8 TCGA_2J_AABF         73 M     G3    T3    N1    M0              691
 9 TCGA_2J_AABH         61 M     G2    T3    N0    M0             1287
10 TCGA_2J_AABI         55 F     G3    T3    N0    M0              969
# ℹ 136 more rows
# ℹ 3 more variables: vital_status <chr>, sample_type <chr>, sample_name <chr>

#you can also do sample_info <- sample_info %>% mutate(across(.cols=c(grade, T, N, M), .fns=factor))
#note-here the columns mentioned above are changed into factor type.  grade, T, N, M are features with different levels as indicated by the #column values
#even though you specify 7 types of levels, if it doesnt find the 7th one in the data, it will still work

Combine sample information with gene expression data. Assign the output to exprs_sampleinfo.

#exprs_sampleinfo <- sample_info %>% mutate (Clinical symptoms = exprs_assay_long)

exprs_sampleinfo <- sample_info %>% left_join(exprs_assay_long, by = join_by(unique_patient_ID == name))
exprs_sampleinfo

# A tibble: 1,314 × 13
   unique_patient_ID   age sex   grade T     N     M     days_to_death
   <chr>             <dbl> <chr> <fct> <fct> <fct> <fct>         <dbl>
 1 TCGA_2J_AAB1         65 M     G2    T3    N1    M0               66
 2 TCGA_2J_AAB1         65 M     G2    T3    N1    M0               66
 3 TCGA_2J_AAB1         65 M     G2    T3    N1    M0               66
 4 TCGA_2J_AAB1         65 M     G2    T3    N1    M0               66
 5 TCGA_2J_AAB1         65 M     G2    T3    N1    M0               66
 6 TCGA_2J_AAB1         65 M     G2    T3    N1    M0               66
 7 TCGA_2J_AAB1         65 M     G2    T3    N1    M0               66
 8 TCGA_2J_AAB1         65 M     G2    T3    N1    M0               66
 9 TCGA_2J_AAB1         65 M     G2    T3    N1    M0               66
10 TCGA_2J_AAB4         48 M     G2    T2    N1    M0              729
# ℹ 1,304 more rows
# ℹ 5 more variables: vital_status <chr>, sample_type <chr>, sample_name <chr>,
#   gene <chr>, values <dbl>
…
#without the last slice command you can see all the 9 genes displayed
#message fro summarise gruopued by sex ignored by .groups=drop
#pivot_wider(names_from = sex, values_from = mean_value)
#expression is values in select, group_by gene_name
#Difference label as FminusM

Visualise the expression of that gene across tumour grades. Facet by sex. Color by T score.

table_for_ggplot <- exprs_sampleinfo %>% 
  filter(gene == "XIST") 
table_for_ggplot

# A tibble: 146 × 13
   unique_patient_ID   age sex   grade T     N     M     days_to_death
   <chr>             <dbl> <chr> <fct> <fct> <fct> <fct>         <dbl>
 1 TCGA_2J_AAB1         65 M     G2    T3    N1    M0               66
 2 TCGA_2J_AAB4         48 M     G2    T2    N1    M0              729
 3 TCGA_2J_AAB6         75 M     G3    T3    N0    M0              293
 4 TCGA_2J_AAB8         71 M     G2    T3    N1    M0               80
 5 TCGA_2J_AAB9         70 F     G2    T3    N1    M0              627
 6 TCGA_2J_AABA         55 M     G2    T3    N1    M0              607
 7 TCGA_2J_AABE         73 M     G2    T3    N0    M0              676
 8 TCGA_2J_AABF         73 M     G3    T3    N1    M0              691
 9 TCGA_2J_AABH         61 M     G2    T3    N0    M0             1287
10 TCGA_2J_AABI         55 F     G3    T3    N0    M0              969
# ℹ 136 more rows
# ℹ 5 more variables: vital_status <chr>, sample_type <chr>, sample_name <chr>,
#   gene <chr>, values <dbl>
…
