Template: Pathway and gene set enrichment analysis
…
#go to msig db website or use their package msiddbr

Retrieve the hallmark gene sets as h_gene_sets object.

msigdbr_collections()

# A tibble: 23 × 3
   gs_cat gs_subcat         num_genesets
   <chr>  <chr>                    <int>
 1 C1     ""                         299
 2 C2     "CGP"                     3384
 3 C2     "CP"                        29
 4 C2     "CP:BIOCARTA"              292
 5 C2     "CP:KEGG"                  186
 6 C2     "CP:PID"                   196
 7 C2     "CP:REACTOME"             1615
 8 C2     "CP:WIKIPATHWAYS"          664
 9 C3     "MIR:MIRDB"               2377
10 C3     "MIR:MIR_Legacy"           221
# ℹ 13 more rows

h_gene_sets <- msigdbr(species="Mus musculus", category="H")

What is the class of the output. Explore contents.

class(h_gene_sets)

[1] "tbl_df"     "tbl"        "data.frame"

h_gene_sets

# A tibble: 7,384 × 18
   gs_cat gs_subcat gs_name               gene_symbol entrez_gene ensembl_gene  
   <chr>  <chr>     <chr>                 <chr>             <int> <chr>         
 1 H      ""        HALLMARK_ADIPOGENESIS Abca1             11303 ENSMUSG000000…
 2 H      ""        HALLMARK_ADIPOGENESIS Abcb8             74610 ENSMUSG000000…
 3 H      ""        HALLMARK_ADIPOGENESIS Acaa2             52538 ENSMUSG000000…
 4 H      ""        HALLMARK_ADIPOGENESIS Acadl             11363 ENSMUSG000000…
 5 H      ""        HALLMARK_ADIPOGENESIS Acadm             11364 ENSMUSG000000…
 6 H      ""        HALLMARK_ADIPOGENESIS Acads             11409 ENSMUSG000000…
 7 H      ""        HALLMARK_ADIPOGENESIS Acly             104112 ENSMUSG000000…
 8 H      ""        HALLMARK_ADIPOGENESIS Aco2              11429 ENSMUSG000000…
 9 H      ""        HALLMARK_ADIPOGENESIS Acox1             11430 ENSMUSG000000…
10 H      ""        HALLMARK_ADIPOGENESIS Adcy6             11512 ENSMUSG000000…
# ℹ 7,374 more rows
# ℹ 12 more variables: human_gene_symbol <chr>, human_entrez_gene <int>,
#   human_ensembl_gene <chr>, gs_id <chr>, gs_pmid <chr>, gs_geoid <chr>,
#   gs_exact_source <chr>, gs_url <chr>, gs_description <chr>, taxon_id <int>,
#   ortholog_sources <chr>, num_ortholog_sources <dbl>
…
Convert result to tibble and arrange by normalised enrichment score

  fgseaResTidy <- fgseaRes %>%
  as_tibble() %>%
  arrange(desc(NES))
fgseaResTidy

# A tibble: 50 × 8
   pathway                    pval    padj log2err    ES   NES  size leadingEdge
   <chr>                     <dbl>   <dbl>   <dbl> <dbl> <dbl> <int> <list>     
 1 HALLMARK_EPITHELIAL_ME… 2.51e-6 4.19e-5   0.627 0.588  1.89   137 <chr [51]> 
 2 HALLMARK_IL2_STAT5_SIG… 2.04e-8 1.02e-6   0.734 0.569  1.89   196 <chr [76]> 
 3 HALLMARK_UV_RESPONSE_DN 2.57e-3 1.61e-2   0.432 0.488  1.55   124 <chr [36]> 
 4 HALLMARK_TGF_BETA_SIGN… 3.33e-2 1.67e-1   0.322 0.525  1.45    50 <chr [16]> 
 5 HALLMARK_ESTROGEN_RESP… 1.15e-2 6.39e-2   0.381 0.431  1.40   160 <chr [39]> 
 6 HALLMARK_PANCREAS_BETA… 7.91e-2 2.47e-1   0.211 0.628  1.39    17 <chr [5]>  
 7 HALLMARK_KRAS_SIGNALIN… 4.94e-2 2.06e-1   0.249 0.431  1.34   107 <chr [35]> 
 8 HALLMARK_ANDROGEN_RESP… 4.90e-2 2.06e-1   0.249 0.437  1.34    93 <chr [16]> 
 9 HALLMARK_INFLAMMATORY_… 5.40e-2 2.08e-1   0.231 0.385  1.27   168 <chr [44]> 
10 HALLMARK_APICAL_JUNCTI… 7.75e-2 2.47e-1   0.192 0.384  1.25   157 <chr [43]> 
# ℹ 40 more rows
…
